\relax 
\providecommand\hyper@newdestlabel[2]{}
\catcode `"\active 
\catcode `-\active 
\providecommand\HyperFirstAtBeginDocument{\AtBeginDocument}
\HyperFirstAtBeginDocument{\ifx\hyper@anchor\@undefined
\global\let\oldcontentsline\contentsline
\gdef\contentsline#1#2#3#4{\oldcontentsline{#1}{#2}{#3}}
\global\let\oldnewlabel\newlabel
\gdef\newlabel#1#2{\newlabelxx{#1}#2}
\gdef\newlabelxx#1#2#3#4#5#6{\oldnewlabel{#1}{{#2}{#3}}}
\AtEndDocument{\ifx\hyper@anchor\@undefined
\let\contentsline\oldcontentsline
\let\newlabel\oldnewlabel
\fi}
\fi}
\global\let\hyper@last\relax 
\gdef\HyperFirstAtBeginDocument#1{#1}
\providecommand\HyField@AuxAddToFields[1]{}
\providecommand\HyField@AuxAddToCoFields[2]{}
\babel@aux{czech}{}
\@writefile{toc}{\contentsline {section}{\numberline {1}Logika, mno\IeC {\v z}iny a z\IeC {\'a}kladn\IeC {\'\i } \IeC {\v c}\IeC {\'\i }seln\IeC {\'e} obory}{1}{section.1}\protected@file@percent }
\@writefile{toc}{\contentsline {subsection}{\numberline {1.1}Logika}{1}{subsection.1.1}\protected@file@percent }
\newlabel{def_vyrok}{{1.1.1}{1}{}{definition.1.1.1}{}}
\newlabel{def_negace}{{1.1.2}{1}{}{definition.1.1.2}{}}
\newlabel{def_konjunkce}{{1.1.3}{1}{}{definition.1.1.3}{}}
\newlabel{def_disjunkce}{{1.1.4}{1}{}{definition.1.1.4}{}}
\newlabel{def_implikace}{{1.1.5}{1}{}{definition.1.1.5}{}}
\newlabel{def_ekvivalence}{{1.1.6}{1}{}{definition.1.1.6}{}}
\newlabel{def_tautologie}{{1.1.7}{1}{}{definition.1.1.7}{}}
\newlabel{def_vforma}{{1.1.8}{2}{}{definition.1.1.8}{}}
\newlabel{def_forall}{{1.1.9}{2}{}{definition.1.1.9}{}}
\newlabel{def_existuje}{{1.1.10}{2}{}{definition.1.1.10}{}}
\@writefile{toc}{\contentsline {paragraph}{\IeC {\'u}mluva k z\IeC {\'a}pisu}{2}{section*.1}\protected@file@percent }
\@writefile{toc}{\contentsline {paragraph}{Negace v\IeC {\'y}rok\IeC {\r u} s kvantifik\IeC {\'a}tory}{2}{section*.2}\protected@file@percent }
\@writefile{toc}{\contentsline {subsection}{\numberline {1.2}Metody d\IeC {\r u}kaz\IeC {\r u}}{3}{subsection.1.2}\protected@file@percent }
\@writefile{toc}{\contentsline {subsection}{\numberline {1.3}Mno\IeC {\v z}iny}{3}{subsection.1.3}\protected@file@percent }
\newlabel{def_mnoziny1}{{1.3.1}{3}{}{definition.1.3.1}{}}
\newlabel{def_sjednoceni}{{1.3.2}{3}{}{definition.1.3.2}{}}
\newlabel{def_prunik}{{1.3.3}{3}{}{definition.1.3.3}{}}
\newlabel{def_mnoziny_rozdil}{{1.3.4}{3}{}{definition.1.3.4}{}}
\newlabel{def_kartezsky_soucin}{{1.3.5}{3}{}{definition.1.3.5}{}}
\newlabel{de_morgan}{{1.1}{4}{}{theorem.1.1}{}}
\@writefile{toc}{\contentsline {paragraph}{Pr\IeC {\r u}nik a sjednocen\IeC {\'\i } indexovan\IeC {\'e}ho syst\IeC {\'e}mu}{4}{section*.3}\protected@file@percent }
\@writefile{toc}{\contentsline {subsection}{\numberline {1.4}Relace uspo\IeC {\v r}\IeC {\'a}d\IeC {\'a}n\IeC {\'\i } a zobrazen\IeC {\'\i }}{4}{subsection.1.4}\protected@file@percent }
\newlabel{def_binrel}{{1.4.1}{4}{}{definition.1.4.1}{}}
\newlabel{def_relace1}{{1.4.2}{4}{}{definition.1.4.2}{}}
\newlabel{def_usporadani}{{1.4.3}{4}{}{definition.1.4.3}{}}
\newlabel{def_omezenost}{{1.4.4}{5}{}{definition.1.4.4}{}}
\newlabel{def_supinf}{{1.4.5}{5}{}{Item.4}{}}
\newlabel{infleqsup}{{1.2}{5}{}{theorem.1.2}{}}
\newlabel{infsup_emptyset}{{1.4}{5}{}{theorem.1.2}{}}
\newlabel{def_zobrazeni}{{1.4.6}{5}{}{definition.1.4.6}{}}
\newlabel{pozn_graf_zobrazeni}{{1.4}{5}{}{definition.1.4.6}{}}
\newlabel{def_vzor_obraz}{{1.4.7}{5}{}{definition.1.4.7}{}}
\newlabel{def_bijekce}{{1.4.8}{6}{}{definition.1.4.8}{}}
\newlabel{def_restrikce}{{1.4.9}{6}{}{definition.1.4.9}{}}
\newlabel{def_slozeni}{{1.4.10}{6}{}{definition.1.4.10}{}}
\newlabel{asoc_skladani}{{1.4}{6}{}{definition.1.4.10}{}}
\newlabel{def_inv_relace}{{1.4.11}{6}{}{definition.1.4.11}{}}
\newlabel{def_inv_zobrazeni}{{1.4.12}{6}{}{definition.1.4.12}{}}
\newlabel{obory_inverze}{{1.4}{6}{}{definition.1.4.12}{}}
\newlabel{def_posloupnost}{{1.4.13}{6}{}{Item.6}{}}
\@writefile{toc}{\contentsline {subsection}{\numberline {1.5}Kone\IeC {\v c}n\IeC {\'e} a spo\IeC {\v c}etn\IeC {\'e} mno\IeC {\v z}iny}{6}{subsection.1.5}\protected@file@percent }
\newlabel{def_mohutnost}{{1.5.1}{6}{}{definition.1.5.1}{}}
\newlabel{def_nekonecna_mnozina}{{1.5.2}{6}{}{definition.1.5.2}{}}
\newlabel{mohutnost_konecna}{{1.5}{7}{}{definition.1.5.2}{}}
\newlabel{cantor_bernstein}{{1.3}{7}{}{theorem.1.3}{}}
\newlabel{mohutnost_mezin2n}{{1.5}{7}{}{theorem.1.4}{}}
\newlabel{razeni_Q}{{1.5}{7}{}{theorem.1.4}{}}
\newlabel{vety_spocetnost}{{1.5}{7}{}{Item.11}{}}
\newlabel{mohutnost_ze_surjekce}{{1}{7}{}{claim.1}{}}
\newlabel{spocetnost_kartezsky_soucin}{{2}{8}{}{claim.2}{}}
\@writefile{toc}{\contentsline {subsection}{\numberline {1.6}Re\IeC {\'a}ln\IeC {\'a} \IeC {\v c}\IeC {\'\i }sla}{8}{subsection.1.6}\protected@file@percent }
\newlabel{real_infimum}{{1.6}{9}{}{theorem.1.6}{}}
\newlabel{def_minmax_real}{{1.6.1}{9}{}{definition.1.6.1}{}}
\newlabel{real_celekolem}{{1.7}{9}{}{theorem.1.7}{}}
\@writefile{toc}{\contentsline {paragraph}{Jednozna\IeC {\v c}nost:}{9}{section*.4}\protected@file@percent }
\@writefile{toc}{\contentsline {paragraph}{zna\IeC {\v c}en\IeC {\'\i }:}{9}{section*.5}\protected@file@percent }
\newlabel{prirozena_horni_mez}{{1.8}{9}{}{theorem.1.8}{}}
\newlabel{hustota_racionalu}{{1.9}{9}{}{theorem.1.9}{}}
\@writefile{toc}{\contentsline {subsection}{\numberline {1.7}Komplexn\IeC {\'\i } \IeC {\v c}\IeC {\'\i }sla}{10}{subsection.1.7}\protected@file@percent }
\@writefile{toc}{\contentsline {section}{\numberline {2}Limita posloupnosti}{10}{section.2}\protected@file@percent }
\@writefile{toc}{\contentsline {subsection}{\numberline {2.1}\IeC {\'U}vod}{10}{subsection.2.1}\protected@file@percent }
\newlabel{def_omezenost_poslt}{{2.1.1}{10}{}{definition.2.1.1}{}}
\newlabel{def_monotonie}{{2.1.2}{10}{}{definition.2.1.2}{}}
\@writefile{toc}{\contentsline {subsection}{\numberline {2.2}Konvergence posloupnosti}{10}{subsection.2.2}\protected@file@percent }
\newlabel{def_limita_poslti}{{2.2.1}{10}{}{definition.2.2.1}{}}
\newlabel{rem_limita_jinak}{{2.2}{10}{}{definition.2.2.1}{}}
\newlabel{jednoznacnost_limity_poslti}{{2.1}{11}{jednoznačnost limity}{theorem.2.1}{}}
\newlabel{def_konvergence_poslt}{{2.2.2}{11}{}{definition.2.2.2}{}}
\newlabel{neg_limita_nn}{{1}{11}{Konvergence posloupnosti}{equation.2.1}{}}
\newlabel{alt_def_limita}{{2.2}{12}{}{equation.2.1}{}}
\newlabel{limita_k_epsilon}{{2.2}{12}{}{theorem.2.2}{}}
\newlabel{omezena_konvergentni_poslt}{{2.3}{12}{}{theorem.2.3}{}}
\newlabel{def_vybrana_poslt}{{2.2.3}{12}{}{definition.2.2.3}{}}
\newlabel{limita_vybrane_poslti}{{2.4}{12}{}{theorem.2.4}{}}
\newlabel{limita_a_aritmeticke_operace}{{2.5}{12}{limita a aritmetické operace}{Item.25}{}}
\newlabel{lim_souctu}{{1}{13}{Konvergence posloupnosti}{Item.26}{}}
\newlabel{lim_soucinu}{{2}{13}{Konvergence posloupnosti}{Item.27}{}}
\newlabel{podm_c_lim_1}{{2}{13}{Konvergence posloupnosti}{equation.2.2}{}}
\newlabel{nedef_cast_poslti}{{2.2}{13}{}{equation.2.2}{}}
\newlabel{lim_nula_a_omezena}{{2.6}{13}{}{theorem.2.6}{}}
\newlabel{limita_abs_hodnoty}{{2.7}{14}{}{theorem.2.7}{}}
\newlabel{limita_a_usporadani}{{2.8}{14}{limita a uspořádání}{Item.30}{}}
\newlabel{lim_poradi_clenu}{{2}{14}{Konvergence posloupnosti}{Item.31}{}}
\newlabel{chyby_usporadani_poslti}{{2.2}{14}{}{Item.34}{}}
\newlabel{o_dvou_straznicich}{{2.9}{14}{o dvou strážnících}{Item.36}{}}
\@writefile{toc}{\contentsline {subsection}{\numberline {2.3}Nevlastn\IeC {\'\i } limita posloupnosti}{15}{subsection.2.3}\protected@file@percent }
\newlabel{def_nevlastni_lim_poslti}{{2.3.1}{15}{}{definition.2.3.1}{}}
\newlabel{def_r_star}{{2.3.2}{15}{}{definition.2.3.2}{}}
\newlabel{jednoznacnost_lim_posti_r_star}{{2.10}{15}{jednoznačnost limity podruhé}{theorem.2.10}{}}
\newlabel{diagram_limity_poslti}{{2.3}{15}{}{Item.42}{}}
\newlabel{andel_a_dabel}{{5}{16}{}{claim.5}{}}
\newlabel{limita_a_aritmeticke_operace_r_star}{{2.11}{16}{}{theorem.2.11}{}}
\newlabel{limarit_druhy}{{1b}{16}{Nevlastní limita posloupnosti}{Item.48}{}}
\newlabel{lim_s_delenim_nulou}{{2.12}{16}{}{theorem.2.12}{}}
\@writefile{toc}{\contentsline {subsection}{\numberline {2.4}Hlub\IeC {\v s}\IeC {\'\i } v\IeC {\v e}ty o limit\IeC {\v e} posloupnosti}{18}{subsection.2.4}\protected@file@percent }
\@writefile{toc}{\contentsline {paragraph}{Supremum a infimum v $\mathbb  {R}^*$}{18}{section*.6}\protected@file@percent }
\newlabel{lim_monotoni_poslt}{{2.13}{18}{}{theorem.2.13}{}}
\newlabel{rem_diagram_limity_monotonni_poslti}{{2.4}{19}{}{Item.60}{}}
\newlabel{cantor_princip_vlozenych_intervalu}{{2.14}{19}{Cantorův princip vložených intervalů}{theorem.2.14}{}}
\newlabel{bolzano_weirstrass}{{2.15}{19}{Bolzanova-Weirstrassova věta}{theorem.2.15}{}}
\newlabel{def_lime_superior_et_inferior}{{2.4.1}{20}{}{definition.2.4.1}{}}
\newlabel{rem_ex_limsup_a_znaceni}{{2.4}{20}{}{definition.2.4.1}{}}
\newlabel{lim_s_limes_superior_et_inferior}{{2.16}{20}{o vztahu limity, limes superior a limes inferior}{theorem.2.16}{}}
\newlabel{limsup_a_usporadani}{{2.17}{21}{}{theorem.2.17}{}}
\newlabel{def_hromadna_honota}{{2.4.2}{21}{}{definition.2.4.2}{}}
\newlabel{limsup_inf_a_hromadne_hodnoty}{{2.18}{21}{limes superior, limes inferior a hromadné hodnoty}{theorem.2.18}{}}
\newlabel{lim_a_jedna_hromadna_hodnota}{{2.19}{22}{}{theorem.2.19}{}}
\newlabel{def_bolzano_cauchy}{{2.4.3}{22}{BC podmínka}{definition.2.4.3}{}}
\newlabel{lim_bolzano_cauchy}{{2.20}{22}{}{theorem.2.20}{}}
\@writefile{toc}{\contentsline {section}{\numberline {3}Limita a spojitost funkce}{22}{section.3}\protected@file@percent }
\@writefile{toc}{\contentsline {subsection}{\numberline {3.1}Z\IeC {\'a}kladn\IeC {\'\i } pojmy}{22}{subsection.3.1}\protected@file@percent }
\newlabel{def_fce}{{3.1.1}{22}{}{definition.3.1.1}{}}
\newlabel{def_rostouci_fce}{{3.1.2}{22}{}{definition.3.1.2}{}}
\newlabel{def_monotonni_fce}{{3.1.3}{22}{}{definition.3.1.3}{}}
\newlabel{def_fce_sudolicha_omezena}{{3.1.4}{22}{}{definition.3.1.4}{}}
\@writefile{toc}{\contentsline {subsection}{\numberline {3.2}Limita funkce}{23}{subsection.3.2}\protected@file@percent }
\newlabel{def_okoli}{{3.2.1}{23}{}{definition.3.2.1}{}}
\newlabel{def_limita_fce}{{3.2.2}{23}{}{definition.3.2.2}{}}
\newlabel{pozn_detaily_k_def_limity_fce}{{3.2}{23}{}{Item.66}{}}
\newlabel{def_stranne_okoli}{{3.2.3}{23}{}{definition.3.2.3}{}}
\newlabel{def_stranne_okoli_infty}{{3.2.4}{23}{}{definition.3.2.4}{}}
\newlabel{def_stranna_limita_fce}{{3.2.5}{24}{}{definition.3.2.5}{}}
\newlabel{pr_lokal_konst}{{1}{24}{Limita funkce}{Item.67}{}}
\newlabel{def_spojita_fce}{{3.2.6}{24}{}{definition.3.2.6}{}}
\newlabel{def_spojitost_stranna}{{3.2.7}{24}{}{definition.3.2.7}{}}
\newlabel{def_spojitost_na_intervalu}{{3.2.8}{24}{}{definition.3.2.8}{}}
\@writefile{toc}{\contentsline {subsection}{\numberline {3.3}V\IeC {\v e}ty o limit\IeC {\'a}ch}{24}{subsection.3.3}\protected@file@percent }
\newlabel{jednoznacnost_lim_fce}{{3.1}{24}{}{theorem.3.1}{}}
\newlabel{fce_omezenost_v_okoli_bodu}{{3.2}{24}{}{theorem.3.2}{}}
\newlabel{fce_aritmetika_limit}{{3.3}{25}{aritmetika limit}{Item.72}{}}
\newlabel{fce_lim_deleni_nulou}{{3.4}{25}{}{theorem.3.4}{}}
\newlabel{rem_polynom_spojity}{{3.3}{25}{}{Item.77}{}}
\newlabel{lim_fce_a_usporadani}{{3.5}{26}{limita funkce a uspořádání}{Item.80}{}}
\newlabel{rem_dusledky_ar_lim_fce}{{3.3}{26}{}{Item.85}{}}
\newlabel{lim_slozene_fce}{{3.6}{26}{limita složené funkce}{theorem.3.6}{}}
\newlabel{jednostranna_lim_slozene_fce}{{3.3}{26}{}{theorem.3.6}{}}
\newlabel{3_7_1}{{1}{27}{Heine}{Item.86}{}}
\newlabel{3_7_2}{{2}{27}{Heine}{Item.87}{}}
\newlabel{heineho_veta}{{3.7}{27}{Heine}{Item.87}{}}
\newlabel{var_heineho_veta}{{3.3}{27}{}{Item.89}{}}
\newlabel{lim_monotonni_fce}{{3.8}{27}{limita monotónní funkce}{Item.91}{}}
\@writefile{toc}{\contentsline {subsection}{\numberline {3.4}Funkce spojit\IeC {\'e} na intervalu}{27}{subsection.3.4}\protected@file@percent }
\newlabel{bolzanova_veta}{{3.9}{27}{Bolzano}{theorem.3.9}{}}
\newlabel{rem_bolzano_jinak}{{3.4}{28}{}{theorem.3.9}{}}
\newlabel{lemma_interval}{{3.10}{28}{}{theorem.3.10}{}}
\newlabel{obraz_intervalu_spojitou_fci}{{3.11}{28}{zobrazení intervalu spojitou funkcí}{theorem.3.11}{}}
\newlabel{spoj_fce_omezenost_na_intervalu}{{3.12}{28}{}{theorem.3.12}{}}
\newlabel{def_bod_maxima}{{3.4.1}{28}{}{definition.3.4.1}{}}
\newlabel{def_lokal_extrem}{{3.4.2}{28}{}{definition.3.4.2}{}}
\newlabel{ex_extrem_spojite_fce}{{3.13}{28}{}{theorem.3.13}{}}
\newlabel{o_inverzni_fci}{{3.14}{28}{o inverzní funkci}{theorem.3.14}{}}
\@writefile{toc}{\contentsline {section}{\numberline {4}Element\IeC {\'a}rn\IeC {\'\i } funkce}{29}{section.4}\protected@file@percent }
\newlabel{zavedeni_log}{{4.1}{29}{zavedení logaritmu}{theorem.4.1}{}}
\@writefile{toc}{\contentsline {paragraph}{Z\IeC {\'a}kladn\IeC {\'\i } vlastnosti logaritmu}{29}{section*.7}\protected@file@percent }
\newlabel{zavedeni_exp}{{4.0.1}{29}{}{definition.4.0.1}{}}
\@writefile{toc}{\contentsline {paragraph}{Z\IeC {\'a}kladn\IeC {\'\i } vlastnosti exponenci\IeC {\'a}ln\IeC {\'\i } funkce}{29}{section*.8}\protected@file@percent }
\newlabel{def_obecna_mocnina}{{4.0.2}{30}{}{definition.4.0.2}{}}
\newlabel{rem_porovnani_def_mocniny}{{4}{30}{}{Item.96}{}}
\newlabel{zavedeni_sin_cos}{{4.2}{30}{zavedení funkcí sinus a kosinus}{theorem.4.2}{}}
\@writefile{toc}{\contentsline {paragraph}{Z\IeC {\'a}kladn\IeC {\'\i } vlastnosti sinu a kosinu}{30}{section*.9}\protected@file@percent }
\newlabel{def_tangens}{{4.0.3}{31}{}{definition.4.0.3}{}}
\newlabel{def_cyklometricke}{{4.0.4}{31}{}{definition.4.0.4}{}}
\newlabel{spojitost_elem_fci}{{4.3}{31}{}{theorem.4.3}{}}
\@writefile{toc}{\contentsline {section}{\numberline {5}Derivace}{31}{section.5}\protected@file@percent }
\@writefile{toc}{\contentsline {subsection}{\numberline {5.1}Definice a z\IeC {\'a}kladn\IeC {\'\i } vztahy}{31}{subsection.5.1}\protected@file@percent }
\newlabel{def_derivace}{{5.1.1}{31}{}{definition.5.1.1}{}}
\newlabel{rem_derivace}{{5.1}{32}{}{Item.104}{}}
\newlabel{vlastni_derivace_a_spojitost}{{5.1}{32}{}{theorem.5.1}{}}
\newlabel{aritmetika_derivaci}{{5.2}{32}{aritmetik derivací}{Item.107}{}}
\newlabel{der_slozene_fce}{{5.3}{32}{derivace složené funkce}{theorem.5.3}{}}
\newlabel{der_inverzni_fce}{{5.4}{33}{derivace inverzní funkce}{Item.117}{}}
\@writefile{toc}{\contentsline {paragraph}{derivace element\IeC {\'a}rn\IeC {\'\i }ch funkc\IeC {\'\i }}{33}{section*.10}\protected@file@percent }
\newlabel{podm_lokalni_extrem}{{5.5}{34}{nutná podmínka lokálního extrému}{theorem.5.5}{}}
\@writefile{toc}{\contentsline {subsection}{\numberline {5.2}V\IeC {\v e}ty o st\IeC {\v r}edn\IeC {\'\i } hodnot\IeC {\v e}}{34}{subsection.5.2}\protected@file@percent }
\newlabel{rolle_tri}{{3}{34}{Rolle}{Item.126}{}}
\newlabel{rolle_der}{{5.6}{34}{Rolle}{Item.126}{}}
\newlabel{lagrange_der}{{5.7}{35}{Lagrange}{theorem.5.7}{}}
\newlabel{cauchy_der}{{5.8}{35}{Cauchy}{theorem.5.8}{}}
\newlabel{der_a_monotonie}{{5.9}{35}{vztah derivace a monotonie}{theorem.5.9}{}}
\newlabel{lopital_i}{{1}{35}{l'Hospitalovo pravidlo}{Item.129}{}}
\newlabel{lopital_ii}{{2}{36}{l'Hospitalovo pravidlo}{Item.130}{}}
\newlabel{l_hospital}{{5.10}{36}{l'Hospitalovo pravidlo}{Item.130}{}}
\newlabel{lopi_a}{{a}{36}{}{Item.131}{}}
\newlabel{lopi_b}{{b}{36}{}{Item.132}{}}
\newlabel{rem_lopital}{{5.2}{36}{}{Item.137}{}}
\newlabel{jednostranna_der_z_limity_a_spoj}{{5.11}{36}{}{theorem.5.11}{}}
\newlabel{rem_jedn_der_z_lim}{{5.2}{37}{}{Item.139}{}}
\newlabel{def_n_ta_derivace}{{5.2.1}{37}{}{definition.5.2.1}{}}
\@writefile{toc}{\contentsline {subsection}{\numberline {5.3}Konvexn\IeC {\'\i } a konk\IeC {\'a}vn\IeC {\'\i } funkce}{37}{subsection.5.3}\protected@file@percent }
\newlabel{def_pod_tecnou}{{5.3.1}{37}{}{definition.5.3.1}{}}
\newlabel{def_inflexe}{{5.3.2}{37}{}{Item.143}{}}
\newlabel{podm_inflexe}{{5.12}{37}{nutná podmínka pro inflexi}{theorem.5.12}{}}
\newlabel{post_podm_inflexe}{{5.13}{37}{postačující podmínka pro inflexi}{theorem.5.13}{}}
\newlabel{def_konvexni_fce}{{5.3.3}{38}{}{definition.5.3.3}{}}
\newlabel{rem_konvex}{{5.3}{38}{}{Item.145}{}}
\newlabel{lemma_konvexnost}{{5.14}{38}{}{theorem.5.14}{}}
\newlabel{rem_lemma_konvex}{{5.3}{38}{}{Item.147}{}}
\newlabel{ex_der_u_konvexni_fce}{{5.15}{38}{}{theorem.5.15}{}}
\newlabel{spojitost_konvex_fce}{{5.16}{38}{}{theorem.5.16}{}}
\newlabel{konvexnost_z_druhe_der}{{5.17}{38}{}{Item.151}{}}
\@writefile{toc}{\contentsline {subsection}{\numberline {5.4}Pr\IeC {\r u}b\IeC {\v e}h funkce}{39}{subsection.5.4}\protected@file@percent }
\newlabel{podm_extremu}{{5.18}{39}{}{theorem.5.18}{}}
\newlabel{def_asymptota}{{5.4.1}{39}{}{definition.5.4.1}{}}
\newlabel{podm_asymptoty}{{5.19}{39}{}{theorem.5.19}{}}
\@writefile{toc}{\contentsline {paragraph}{vy\IeC {\v s}et\IeC {\v r}en\IeC {\'\i } pr\IeC {\r u}b\IeC {\v e}hu funkce}{39}{section*.11}\protected@file@percent }
\@writefile{toc}{\contentsline {section}{\numberline {6}Taylor\IeC {\r u}v polynom}{39}{section.6}\protected@file@percent }
\@writefile{toc}{\contentsline {subsection}{\numberline {6.1}Z\IeC {\'a}kladn\IeC {\'\i } vlastnosti}{39}{subsection.6.1}\protected@file@percent }
\newlabel{def_taylor}{{6.1.1}{39}{}{definition.6.1.1}{}}
\newlabel{rem_taylor}{{6.1}{39}{}{Item.161}{}}
\newlabel{lemma_nul_poly}{{6.1}{40}{}{theorem.6.1}{}}
\newlabel{peano_tvar_zbytku}{{6.2}{40}{Peanův tvar zbytku}{theorem.6.2}{}}
\newlabel{obecny_tvar_zbytku}{{6.3}{40}{}{theorem.6.3}{}}
\newlabel{lagrangeuv_tvar_zbytku}{{6.4}{40}{Lagrangeův tvar zbytku}{theorem.6.4}{}}
\newlabel{cauchyuv_tvar_zbytku}{{6.5}{41}{Cauchyův tvar zbytku}{theorem.6.5}{}}
