\relax 
\providecommand\hyper@newdestlabel[2]{}
\catcode `"\active 
\catcode `-\active 
\providecommand\HyperFirstAtBeginDocument{\AtBeginDocument}
\HyperFirstAtBeginDocument{\ifx\hyper@anchor\@undefined
\global\let\oldcontentsline\contentsline
\gdef\contentsline#1#2#3#4{\oldcontentsline{#1}{#2}{#3}}
\global\let\oldnewlabel\newlabel
\gdef\newlabel#1#2{\newlabelxx{#1}#2}
\gdef\newlabelxx#1#2#3#4#5#6{\oldnewlabel{#1}{{#2}{#3}}}
\AtEndDocument{\ifx\hyper@anchor\@undefined
\let\contentsline\oldcontentsline
\let\newlabel\oldnewlabel
\fi}
\fi}
\global\let\hyper@last\relax 
\gdef\HyperFirstAtBeginDocument#1{#1}
\providecommand\HyField@AuxAddToFields[1]{}
\providecommand\HyField@AuxAddToCoFields[2]{}
\babel@aux{czech}{}
\@writefile{toc}{\contentsline {paragraph}{links}{1}{section*.1}\protected@file@percent }
\@writefile{toc}{\contentsline {section}{\numberline {1}Mno\IeC {\v z}iny, z\IeC {\'a}kladn\IeC {\'\i } operace, zna\IeC {\v c}en\IeC {\'\i }}{1}{section.1}\protected@file@percent }
\@writefile{toc}{\contentsline {subsection}{\numberline {1.1}\IeC {\v c}\IeC {\'\i }seln\IeC {\'e} obory}{1}{subsection.1.1}\protected@file@percent }
\@writefile{toc}{\contentsline {subsection}{\numberline {1.2}operace}{1}{subsection.1.2}\protected@file@percent }
\@writefile{toc}{\contentsline {subsection}{\numberline {1.3}Kvantifik\IeC {\'a}tory a logick\IeC {\'e} spojky}{2}{subsection.1.3}\protected@file@percent }
\@writefile{toc}{\contentsline {subsection}{\numberline {1.4}mno\IeC {\v z}inov\IeC {\'e} operace}{2}{subsection.1.4}\protected@file@percent }
\@writefile{toc}{\contentsline {subsubsection}{\numberline {1.4.1}vlastnosti mno\IeC {\v z}inov\IeC {\'y}ch operac\IeC {\'\i }}{2}{subsubsection.1.4.1}\protected@file@percent }
\@writefile{toc}{\contentsline {section}{\numberline {2}Typy d\IeC {\r u}kaz\IeC {\r u}}{3}{section.2}\protected@file@percent }
\@writefile{toc}{\contentsline {section}{\numberline {3}Relace na mno\IeC {\v z}in\IeC {\'a}ch}{3}{section.3}\protected@file@percent }
\newlabel{def_usporadana_dvojice}{{3.1}{3}{}{definition.3.1}{}}
\newlabel{def_kartezsky_soucin}{{3.2}{3}{}{definition.3.2}{}}
\newlabel{def_relace}{{3.3}{4}{}{definition.3.3}{}}
\@writefile{toc}{\contentsline {paragraph}{zna\IeC {\v c}en\IeC {\'\i } relac\IeC {\'\i }}{4}{section*.2}\protected@file@percent }
\@writefile{toc}{\contentsline {subsection}{\numberline {3.1}Operace na relac\IeC {\'\i }ch}{4}{subsection.3.1}\protected@file@percent }
\newlabel{def_inverzni_relace}{{3.4}{4}{}{definition.3.4}{}}
\newlabel{def_slozeni_relaci}{{3.5}{4}{}{definition.3.5}{}}
\@writefile{toc}{\contentsline {subsection}{\numberline {3.2}Funkce}{4}{subsection.3.2}\protected@file@percent }
\newlabel{def_funkce}{{3.6}{4}{}{definition.3.6}{}}
\newlabel{def_slozeni_fci}{{3.7}{4}{}{definition.3.7}{}}
\newlabel{def_sruhy_fci}{{3.8}{5}{}{definition.3.8}{}}
\newlabel{def_mohutnost}{{3.9}{5}{\textbf {mohutnost}}{definition.3.9}{}}
\newlabel{veta_cantor-bernstein}{{2}{5}{}{theorem.2}{}}
\newlabel{veta_cantor}{{3}{5}{}{theorem.3}{}}
\@writefile{toc}{\contentsline {subsection}{\numberline {3.3}Druhy relac\IeC {\'\i }}{5}{subsection.3.3}\protected@file@percent }
\newlabel{def_typy_reci}{{3.10}{5}{}{Item.12}{}}
\newlabel{def_ekviv}{{3.11}{5}{}{definition.3.11}{}}
\newlabel{def_trida_ekviv}{{3.12}{5}{}{definition.3.12}{}}
\@writefile{toc}{\contentsline {paragraph}{zna\IeC {\v c}en\IeC {\'\i }:}{6}{section*.3}\protected@file@percent }
\newlabel{def_usporadani}{{3.13}{6}{značení:}{section*.3}{}}
\newlabel{def_minmax_usporadani}{{3.14}{6}{}{Item.30}{}}
\newlabel{min_prvek_usporadani}{{4}{6}{}{theorem.4}{}}
\newlabel{pozn_minprvusp_reftra}{{1}{6}{}{Item.31}{}}
\newlabel{rozsireni_usp_na_linearni}{{5}{7}{}{theorem.5}{}}
\newlabel{def_vnoreni}{{3.15}{7}{}{Item.34}{}}
\newlabel{vnoreni_potencni}{{6}{7}{}{theorem.6}{}}
\newlabel{def_retezec_v_usp}{{3.16}{8}{}{definition.3.16}{}}
\newlabel{o_dlouhem_a_sirokem}{{7}{8}{věta o dlouhém a širokém}{theorem.7}{}}
\newlabel{erdos_szekeres}{{8}{8}{Erdösovo-Szekeresovo lemma}{theorem.8}{}}
\newlabel{pocet_zobrazeni}{{9}{8}{}{theorem.9}{}}
\newlabel{velikost_potencni}{{10}{9}{}{theorem.10}{}}
\newlabel{znaceni_potencni}{{3.3}{9}{}{theorem.10}{}}
\newlabel{pocet_prostych}{{11}{9}{}{theorem.11}{}}
\newlabel{def_permutace_bij}{{3.17}{9}{}{definition.3.17}{}}
\newlabel{def_binomial}{{3.18}{10}{}{definition.3.18}{}}
\newlabel{def_velikost_ktice}{{12}{10}{}{theorem.12}{}}
\newlabel{binomicka_veta}{{13}{10}{binomická věta}{theorem.13}{}}
\@writefile{toc}{\contentsline {paragraph}{Princip inkluze a exkluze}{10}{section*.4}\protected@file@percent }
\newlabel{pie}{{14}{10}{princip inkluze a exkluze}{theorem.14}{}}
\newlabel{eulerova_fce_prvocisla}{{15}{12}{}{theorem.15}{}}
\@writefile{toc}{\contentsline {section}{\numberline {4}Grafy}{12}{section.4}\protected@file@percent }
\newlabel{def_graf}{{4.1}{12}{}{definition.4.1}{}}
\newlabel{def_isomorfismus_grafu}{{4.2}{12}{}{definition.4.2}{}}
\newlabel{def_bipartitni_graf}{{4.3}{12}{}{definition.4.3}{}}
\newlabel{def_specialni_grafy}{{4.4}{12}{}{definition.4.4}{}}
\newlabel{def_podgraf}{{4.5}{12}{}{definition.4.5}{}}
\newlabel{def_cesta_v_grafu}{{4.6}{13}{}{definition.4.6}{}}
\newlabel{def_souvisly_graf}{{4.7}{13}{}{definition.4.7}{}}
\newlabel{def_relace_cesty_na_grafu}{{4.8}{13}{}{definition.4.8}{}}
\newlabel{def_vzdalenost_v_grafu}{{4.9}{13}{}{definition.4.9}{}}
\newlabel{def_matice_zapisu_grafu}{{4.10}{13}{}{definition.4.10}{}}
\newlabel{def_stupen_vrcholu}{{4.11}{13}{}{definition.4.11}{}}
\newlabel{def_eulerovsky_tah}{{4.12}{13}{}{definition.4.12}{}}
\newlabel{def_eulerovsky_graf}{{4.13}{13}{}{definition.4.13}{}}
\newlabel{podm_eulerovskeho_grafu}{{16}{13}{}{theorem.16}{}}
\newlabel{def_sled}{{4.14}{14}{}{definition.4.14}{}}
\newlabel{rozklad_na_cykly}{{17}{14}{}{theorem.17}{}}
\newlabel{def_orientovany_graf}{{4.15}{14}{}{definition.4.15}{}}
\newlabel{orientovany_euerovsky_graf}{{18}{14}{}{theorem.18}{}}
\newlabel{pocet_sledu_z_mat_sous}{{19}{15}{}{theorem.19}{}}
\newlabel{def_obarveni}{{4.16}{15}{}{definition.4.16}{}}
\newlabel{max_stupen_a_barevnost}{{20}{15}{}{theorem.20}{}}
\newlabel{pocet_obarveni}{{21}{15}{}{theorem.21}{}}
\newlabel{def_skore}{{4.17}{15}{}{definition.4.17}{}}
\newlabel{veta_o_skore}{{22}{15}{věta o skóre}{theorem.22}{}}
\@writefile{toc}{\contentsline {subsection}{\numberline {4.1}Stromy}{16}{subsection.4.1}\protected@file@percent }
\newlabel{def_strom}{{4.18}{16}{}{definition.4.18}{}}
\newlabel{l_ex_listu}{{23}{16}{}{theorem.23}{}}
\newlabel{l_strom_bez_listu}{{24}{16}{}{theorem.24}{}}
\newlabel{strom_1}{{1}{16}{charakterizace stromů}{Item.56}{}}
\newlabel{strom_2}{{2}{16}{charakterizace stromů}{Item.57}{}}
\newlabel{strom_3}{{3}{16}{charakterizace stromů}{Item.58}{}}
\newlabel{strom_4}{{4}{16}{charakterizace stromů}{Item.59}{}}
\newlabel{strom_5}{{5}{16}{charakterizace stromů}{Item.60}{}}
\newlabel{alt_def_stromu}{{25}{16}{charakterizace stromů}{Item.60}{}}
\@writefile{toc}{\contentsline {subsubsection}{\numberline {4.1.1}Probl\IeC {\'e}m minim\IeC {\'a}ln\IeC {\'\i } kostry}{17}{subsubsection.4.1.1}\protected@file@percent }
\newlabel{def_kostra}{{4.19}{17}{}{definition.4.19}{}}
\newlabel{jarnikuv_algoritmus}{{4.20}{17}{\textbf {Jarníkův algoritmus}}{definition.4.20}{}}
\@writefile{toc}{\contentsline {subsubsection}{\numberline {4.1.2}Po\IeC {\v c}\IeC {\'\i }t\IeC {\'a}n\IeC {\'\i } dv\IeC {\v e}ma zp\IeC {\r u}soby a Cayleyho vzorec}{18}{subsubsection.4.1.2}\protected@file@percent }
\newlabel{cayley}{{26}{18}{Cayleyho vzorec}{theorem.26}{}}
\newlabel{cayley_prvni}{{2a}{18}{Počítání dvěma způsoby a Cayleyho vzorec}{Item.63}{}}
\@writefile{toc}{\contentsline {subsection}{\numberline {4.2}Rovinn\IeC {\'e} grafy}{18}{subsection.4.2}\protected@file@percent }
\newlabel{def_oblouk}{{4.21}{18}{}{definition.4.21}{}}
\newlabel{def_nakresleni}{{4.22}{18}{}{definition.4.22}{}}
\newlabel{def_rovinny_graf}{{4.23}{18}{}{definition.4.23}{}}
\newlabel{def_jordanova_krivka}{{4.24}{18}{}{definition.4.24}{}}
\newlabel{jordan_veta_o_kruznici}{{27}{18}{Jordanova věta o kružnici}{theorem.27}{}}
\newlabel{kuratowski}{{28}{19}{Kuratowského věta}{theorem.28}{}}
\newlabel{eulerova_formule_rg}{{29}{19}{Eulerova formule}{theorem.29}{}}
\newlabel{dusl_pocet_sten}{{30}{19}{}{theorem.30}{}}
\@writefile{toc}{\contentsline {subsubsection}{\numberline {4.2.1}Barven\IeC {\'\i } rovinn\IeC {\'y}ch graf\IeC {\r u}}{19}{subsubsection.4.2.1}\protected@file@percent }
\newlabel{4_color_th}{{33}{19}{Věta o 4 barvách}{theorem.33}{}}
\newlabel{def_kontrakce_hrany}{{4.27}{19}{}{definition.4.27}{}}
\newlabel{5_color_th}{{34}{20}{Věta o 5 barvách}{theorem.34}{}}
\@writefile{toc}{\contentsline {section}{\numberline {5}Asymptotick\IeC {\'e} po\IeC {\v c}\IeC {\'\i }t\IeC {\'a}n\IeC {\'\i }}{20}{section.5}\protected@file@percent }
\newlabel{def_landau_o}{{5.1}{20}{Landauova notace}{definition.5.1}{}}
\@writefile{toc}{\contentsline {subsection}{\numberline {5.1}faktori\IeC {\'a}l}{20}{subsection.5.1}\protected@file@percent }
\newlabel{lemma_tecna_ex}{{35}{20}{}{theorem.35}{}}
\newlabel{odhad_faktorial_2}{{36}{20}{}{theorem.36}{}}
\newlabel{strirlinguv_odhad}{{37}{21}{Stirlingův odhad}{theorem.37}{}}
